EESchema Schematic File Version 2
LIBS:power
LIBS:device
LIBS:linear
LIBS:regul
LIBS:adc-dac
LIBS:memory
LIBS:xilinx
LIBS:microcontrollers
LIBS:dsp
LIBS:microchip
LIBS:analog_switches
LIBS:motorola
LIBS:texas
LIBS:intel
LIBS:audio
LIBS:interface
LIBS:digital-audio
LIBS:philips
LIBS:display
LIBS:cypress
LIBS:siliconi
LIBS:opto
LIBS:atmel
LIBS:contrib
LIBS:bartomaton
LIBS:ac-dc
LIBS:Altera
LIBS:analog_devices
LIBS:battery_management
LIBS:bbd
LIBS:bosch
LIBS:brooktre
LIBS:dc-dc
LIBS:diode
LIBS:elec-unifil
LIBS:ESD_Protection
LIBS:ftdi
LIBS:gennum
LIBS:graphic
LIBS:hc11
LIBS:intersil
LIBS:ir
LIBS:Lattice
LIBS:maxim
LIBS:mechanical
LIBS:modules
LIBS:motor_drivers
LIBS:nordicsemi
LIBS:nxp
LIBS:onsemi
LIBS:Oscillators
LIBS:Power_Management
LIBS:powerint
LIBS:pspice
LIBS:references
LIBS:rfcom
LIBS:sensors
LIBS:silabs
LIBS:supertex
LIBS:triac_thyristor
LIBS:video
LIBS:wiznet
LIBS:Worldsemi
LIBS:Xicor
LIBS:zetex
LIBS:Zilog
LIBS:bartomatonPCB-cache
EELAYER 25 0
EELAYER END
$Descr A0 46811 33110
encoding utf-8
Sheet 1 1
Title ""
Date ""
Rev ""
Comp ""
Comment1 ""
Comment2 ""
Comment3 ""
Comment4 ""
$EndDescr
$Comp
L SN754410 U2
U 1 1 5930A3C8
P 7200 1750
F 0 "U2" H 6700 2500 60  0000 C CNN
F 1 "SN754410" H 7200 2100 60  0000 C CNN
F 2 "Housings_DIP:DIP-16_W7.62mm_LongPads" H 7000 1650 60  0001 C CNN
F 3 "" H 7000 1650 60  0001 C CNN
	1    7200 1750
	1    0    0    -1  
$EndComp
$Comp
L SN754410 U3
U 1 1 5930A64D
P 7200 3650
F 0 "U3" H 6700 4400 60  0000 C CNN
F 1 "SN754410" H 7200 4000 60  0000 C CNN
F 2 "Housings_DIP:DIP-16_W7.62mm_LongPads" H 7000 3550 60  0001 C CNN
F 3 "" H 7000 3550 60  0001 C CNN
	1    7200 3650
	1    0    0    -1  
$EndComp
$Comp
L Motor_DC M1
U 1 1 5930AE18
P 9600 1800
F 0 "M1" H 9700 1900 50  0000 L CNN
F 1 "Motor_1" H 9600 1450 50  0000 R BNN
F 2 "Connectors_JST:JST_XH_B02B-XH-A_02x2.50mm_Straight" H 9600 1710 50  0001 C CNN
F 3 "" H 9600 1710 50  0001 C CNN
	1    9600 1800
	1    0    0    -1  
$EndComp
$Comp
L Motor_DC M2
U 1 1 5930AFDF
P 9950 1800
F 0 "M2" H 10050 1900 50  0000 L CNN
F 1 "Motor_2" H 9950 1500 50  0000 R TNN
F 2 "Connectors_JST:JST_XH_B02B-XH-A_02x2.50mm_Straight" H 9950 1710 50  0001 C CNN
F 3 "" H 9950 1710 50  0001 C CNN
	1    9950 1800
	1    0    0    -1  
$EndComp
$Comp
L Motor_DC M3
U 1 1 5930B020
P 10300 1800
F 0 "M3" H 10400 1900 50  0000 L CNN
F 1 "Motor_3" H 10300 1500 50  0000 R TNN
F 2 "Connectors_JST:JST_XH_B02B-XH-A_02x2.50mm_Straight" H 10300 1710 50  0001 C CNN
F 3 "" H 10300 1710 50  0001 C CNN
	1    10300 1800
	1    0    0    -1  
$EndComp
$Comp
L Motor_DC M4
U 1 1 5930B05E
P 10650 1800
F 0 "M4" H 10750 1900 50  0000 L CNN
F 1 "Motor_4" H 10650 1500 50  0000 R TNN
F 2 "Connectors_JST:JST_XH_B02B-XH-A_02x2.50mm_Straight" H 10650 1710 50  0001 C CNN
F 3 "" H 10650 1710 50  0001 C CNN
	1    10650 1800
	1    0    0    -1  
$EndComp
$Comp
L GND #PWR01
U 1 1 5930C3E5
P 9500 2500
F 0 "#PWR01" H 9500 2250 50  0001 C CNN
F 1 "GND" H 9500 2350 50  0000 C CNN
F 2 "" H 9500 2500 50  0001 C CNN
F 3 "" H 9500 2500 50  0001 C CNN
	1    9500 2500
	1    0    0    -1  
$EndComp
$Comp
L +5V #PWR02
U 1 1 5930C926
P 8050 1100
F 0 "#PWR02" H 8050 950 50  0001 C CNN
F 1 "+5V" H 8050 1240 50  0000 C CNN
F 2 "" H 8050 1100 50  0001 C CNN
F 3 "" H 8050 1100 50  0001 C CNN
	1    8050 1100
	1    0    0    -1  
$EndComp
$Comp
L +5V #PWR03
U 1 1 5930CAE7
P 8050 3000
F 0 "#PWR03" H 8050 2850 50  0001 C CNN
F 1 "+5V" H 8050 3140 50  0000 C CNN
F 2 "" H 8050 3000 50  0001 C CNN
F 3 "" H 8050 3000 50  0001 C CNN
	1    8050 3000
	1    0    0    -1  
$EndComp
$Comp
L +12V #PWR04
U 1 1 5930CCA8
P 1000 2950
F 0 "#PWR04" H 1000 2800 50  0001 C CNN
F 1 "+12V" H 1000 3090 50  0000 C CNN
F 2 "" H 1000 2950 50  0001 C CNN
F 3 "" H 1000 2950 50  0001 C CNN
	1    1000 2950
	1    0    0    -1  
$EndComp
$Comp
L +12V #PWR05
U 1 1 5930D1C3
P 6450 4250
F 0 "#PWR05" H 6450 4100 50  0001 C CNN
F 1 "+12V" H 6450 4390 50  0000 C CNN
F 2 "" H 6450 4250 50  0001 C CNN
F 3 "" H 6450 4250 50  0001 C CNN
	1    6450 4250
	-1   0    0    1   
$EndComp
$Comp
L +12V #PWR06
U 1 1 5930D42C
P 6450 2350
F 0 "#PWR06" H 6450 2200 50  0001 C CNN
F 1 "+12V" H 6450 2490 50  0000 C CNN
F 2 "" H 6450 2350 50  0001 C CNN
F 3 "" H 6450 2350 50  0001 C CNN
	1    6450 2350
	-1   0    0    1   
$EndComp
$Comp
L GND #PWR07
U 1 1 5930E021
P 8250 2450
F 0 "#PWR07" H 8250 2200 50  0001 C CNN
F 1 "GND" H 8250 2300 50  0000 C CNN
F 2 "" H 8250 2450 50  0001 C CNN
F 3 "" H 8250 2450 50  0001 C CNN
	1    8250 2450
	1    0    0    -1  
$EndComp
$Comp
L GND #PWR08
U 1 1 5930E0D1
P 6250 2500
F 0 "#PWR08" H 6250 2250 50  0001 C CNN
F 1 "GND" H 6250 2350 50  0000 C CNN
F 2 "" H 6250 2500 50  0001 C CNN
F 3 "" H 6250 2500 50  0001 C CNN
	1    6250 2500
	1    0    0    -1  
$EndComp
$Comp
L GND #PWR09
U 1 1 5930E311
P 6250 4400
F 0 "#PWR09" H 6250 4150 50  0001 C CNN
F 1 "GND" H 6250 4250 50  0000 C CNN
F 2 "" H 6250 4400 50  0001 C CNN
F 3 "" H 6250 4400 50  0001 C CNN
	1    6250 4400
	1    0    0    -1  
$EndComp
$Comp
L GND #PWR010
U 1 1 5930E5FC
P 8250 4500
F 0 "#PWR010" H 8250 4250 50  0001 C CNN
F 1 "GND" H 8250 4350 50  0000 C CNN
F 2 "" H 8250 4500 50  0001 C CNN
F 3 "" H 8250 4500 50  0001 C CNN
	1    8250 4500
	1    0    0    -1  
$EndComp
$Comp
L +5V #PWR011
U 1 1 5930EB1B
P 8050 2350
F 0 "#PWR011" H 8050 2200 50  0001 C CNN
F 1 "+5V" H 8050 2490 50  0000 C CNN
F 2 "" H 8050 2350 50  0001 C CNN
F 3 "" H 8050 2350 50  0001 C CNN
	1    8050 2350
	-1   0    0    1   
$EndComp
$Comp
L +5V #PWR012
U 1 1 5930ECCE
P 8050 4250
F 0 "#PWR012" H 8050 4100 50  0001 C CNN
F 1 "+5V" H 8050 4390 50  0000 C CNN
F 2 "" H 8050 4250 50  0001 C CNN
F 3 "" H 8050 4250 50  0001 C CNN
	1    8050 4250
	-1   0    0    1   
$EndComp
Text Label 9600 1050 3    60   ~ 0
motor1_out
Text Label 9950 1050 3    60   ~ 0
motor2_out
Text Label 10300 1050 3    60   ~ 0
motor3_out
Text Label 10650 1050 3    60   ~ 0
motor4_out
Text Label 5900 1500 0    60   ~ 0
motor1_out
Text Label 5600 1950 0    60   ~ 0
motor2_out
Text Label 8650 1500 2    60   ~ 0
motor3_out
Text Label 8800 1950 2    60   ~ 0
motor4_out
$Comp
L +5V #PWR013
U 1 1 5931A7CD
P 6450 1100
F 0 "#PWR013" H 6450 950 50  0001 C CNN
F 1 "+5V" H 6450 1240 50  0000 C CNN
F 2 "" H 6450 1100 50  0001 C CNN
F 3 "" H 6450 1100 50  0001 C CNN
	1    6450 1100
	1    0    0    -1  
$EndComp
$Comp
L +5V #PWR014
U 1 1 5931A974
P 6450 3000
F 0 "#PWR014" H 6450 2850 50  0001 C CNN
F 1 "+5V" H 6450 3140 50  0000 C CNN
F 2 "" H 6450 3000 50  0001 C CNN
F 3 "" H 6450 3000 50  0001 C CNN
	1    6450 3000
	1    0    0    -1  
$EndComp
Text Label 5850 3400 0    60   ~ 0
motor5_out
Text Label 5700 3850 0    60   ~ 0
motor6_out
Text Label 5850 1350 0    60   ~ 0
motor1_logic
Text Label 5600 2100 0    60   ~ 0
motor2_logic
Text Label 8650 1350 2    60   ~ 0
motor3_logic
Text Label 8900 2100 2    60   ~ 0
motor4_logic
Text Label 5800 3250 0    60   ~ 0
motor5_logic
Text Label 5600 4000 0    60   ~ 0
motor6_logic
$Comp
L CONN_01X02_MALE J2
U 1 1 5931CD2E
P 650 3450
F 0 "J2" H 650 3250 50  0000 C CNN
F 1 "12V_OUT" H 650 3650 50  0000 C CNN
F 2 "Connectors_JST:JST_XH_B02B-XH-A_02x2.50mm_Straight" H 650 3550 50  0001 C CNN
F 3 "" H 650 3550 50  0001 C CNN
	1    650  3450
	1    0    0    -1  
$EndComp
$Comp
L GND #PWR015
U 1 1 5931CF7E
P 1000 3700
F 0 "#PWR015" H 1000 3450 50  0001 C CNN
F 1 "GND" H 1000 3550 50  0000 C CNN
F 2 "" H 1000 3700 50  0001 C CNN
F 3 "" H 1000 3700 50  0001 C CNN
	1    1000 3700
	1    0    0    -1  
$EndComp
Text Notes 600  2650 0    60   ~ 0
UBEC 12V-5V \nDC-DC Power Step Down\n
$Comp
L CONN_01X02_MALE J3
U 1 1 5931DC89
P 1600 3450
F 0 "J3" H 1600 3650 50  0000 C CNN
F 1 "5V_IN" H 1600 3250 50  0000 C CNN
F 2 "Connectors_JST:JST_XH_B02B-XH-A_02x2.50mm_Straight" H 1600 3550 50  0001 C CNN
F 3 "" H 1600 3550 50  0001 C CNN
	1    1600 3450
	-1   0    0    1   
$EndComp
$Comp
L GND #PWR016
U 1 1 5931DC8F
P 1250 3700
F 0 "#PWR016" H 1250 3450 50  0001 C CNN
F 1 "GND" H 1250 3550 50  0000 C CNN
F 2 "" H 1250 3700 50  0001 C CNN
F 3 "" H 1250 3700 50  0001 C CNN
	1    1250 3700
	1    0    0    -1  
$EndComp
$Comp
L +5V #PWR017
U 1 1 5931E365
P 1250 2950
F 0 "#PWR017" H 1250 2800 50  0001 C CNN
F 1 "+5V" H 1250 3090 50  0000 C CNN
F 2 "" H 1250 2950 50  0001 C CNN
F 3 "" H 1250 2950 50  0001 C CNN
	1    1250 2950
	1    0    0    -1  
$EndComp
Text Notes 600  750  0    60   ~ 0
Barrel Jack\nPower Input\n
Text Notes 1350 750  0    60   ~ 0
(from 12V\n PSU brick)\n
$Comp
L +12V #PWR018
U 1 1 5931E95B
P 1300 1200
F 0 "#PWR018" H 1300 1050 50  0001 C CNN
F 1 "+12V" H 1300 1340 50  0000 C CNN
F 2 "" H 1300 1200 50  0001 C CNN
F 3 "" H 1300 1200 50  0001 C CNN
	1    1300 1200
	1    0    0    -1  
$EndComp
$Comp
L GND #PWR019
U 1 1 5931E967
P 1300 1750
F 0 "#PWR019" H 1300 1500 50  0001 C CNN
F 1 "GND" H 1300 1600 50  0000 C CNN
F 2 "" H 1300 1750 50  0001 C CNN
F 3 "" H 1300 1750 50  0001 C CNN
	1    1300 1750
	1    0    0    -1  
$EndComp
NoConn ~ 3650 4450
NoConn ~ 3750 4450
NoConn ~ 4450 6450
NoConn ~ 4450 6550
NoConn ~ 2650 6450
NoConn ~ 2650 6550
$Comp
L +5V #PWR020
U 1 1 5931FC02
P 3350 4350
F 0 "#PWR020" H 3350 4200 50  0001 C CNN
F 1 "+5V" H 3350 4490 50  0000 C CNN
F 2 "" H 3350 4350 50  0001 C CNN
F 3 "" H 3350 4350 50  0001 C CNN
	1    3350 4350
	1    0    0    -1  
$EndComp
$Comp
L GND #PWR021
U 1 1 5931FC43
P 3150 7150
F 0 "#PWR021" H 3150 6900 50  0001 C CNN
F 1 "GND" H 3150 7000 50  0000 C CNN
F 2 "" H 3150 7150 50  0001 C CNN
F 3 "" H 3150 7150 50  0001 C CNN
	1    3150 7150
	1    0    0    -1  
$EndComp
$Comp
L PWR_FLAG #FLG022
U 1 1 593213AD
P 1650 1100
F 0 "#FLG022" H 1650 1175 50  0001 C CNN
F 1 "PWR_FLAG" H 1650 1250 50  0000 C CNN
F 2 "" H 1650 1100 50  0001 C CNN
F 3 "" H 1650 1100 50  0001 C CNN
	1    1650 1100
	1    0    0    -1  
$EndComp
$Comp
L PWR_FLAG #FLG023
U 1 1 59321601
P 1650 1950
F 0 "#FLG023" H 1650 2025 50  0001 C CNN
F 1 "PWR_FLAG" H 1650 2100 50  0000 C CNN
F 2 "" H 1650 1950 50  0001 C CNN
F 3 "" H 1650 1950 50  0001 C CNN
	1    1650 1950
	-1   0    0    1   
$EndComp
$Comp
L PWR_FLAG #FLG024
U 1 1 59321B0A
P 1800 2950
F 0 "#FLG024" H 1800 3025 50  0001 C CNN
F 1 "PWR_FLAG" H 1800 3100 50  0000 C CNN
F 2 "" H 1800 2950 50  0001 C CNN
F 3 "" H 1800 2950 50  0001 C CNN
	1    1800 2950
	1    0    0    -1  
$EndComp
Text Label 1750 6150 0    60   ~ 0
motorSel_0
Text Label 1750 5150 0    60   ~ 0
motorSel_1
Text Label 5350 5750 2    60   ~ 0
motorSel_3
Text Label 5350 5950 2    60   ~ 0
motorSel_2
Text Label 1750 5650 0    60   ~ 0
motorStrobe
Text Label 5350 5850 2    60   ~ 0
motorInhibit
$Comp
L Raspberry_Pi_2_3 J4
U 1 1 5930A483
P 3550 5750
F 0 "J4" H 4250 4500 50  0000 C CNN
F 1 "Raspberry_Pi_2_3" H 3150 6650 50  0000 C CNN
F 2 "Connect:IDC_Header_Straight_40pins" H 4550 7000 50  0001 C CNN
F 3 "" H 3600 5600 50  0001 C CNN
	1    3550 5750
	1    0    0    -1  
$EndComp
Text Notes 3500 4300 0    60   ~ 0
Raspberry Pi 3
Text Notes 9750 800  0    60   ~ 0
Pump Motor Array
Text Notes 6300 800  0    60   ~ 0
Half H-Bridge Motor Pump Motor Controllers
$Comp
L BARREL_JACK J1
U 1 1 5931F00C
P 1000 1500
F 0 "J1" H 1000 1695 50  0000 C CNN
F 1 "BARREL_JACK" H 1000 1345 50  0000 C CNN
F 2 "Connect:BARREL_JACK" H 1000 1500 50  0001 C CNN
F 3 "" H 1000 1500 50  0001 C CNN
	1    1000 1500
	1    0    0    -1  
$EndComp
$Comp
L Motor_DC M5
U 1 1 5968585B
P 9600 3600
F 0 "M5" H 9700 3700 50  0000 L CNN
F 1 "Motor_5" H 9600 3250 50  0000 R BNN
F 2 "Connectors_JST:JST_XH_B02B-XH-A_02x2.50mm_Straight" H 9600 3510 50  0001 C CNN
F 3 "" H 9600 3510 50  0001 C CNN
	1    9600 3600
	1    0    0    -1  
$EndComp
$Comp
L Motor_DC M6
U 1 1 59685861
P 9950 3600
F 0 "M6" H 10050 3700 50  0000 L CNN
F 1 "Motor_6" H 9950 3300 50  0000 R TNN
F 2 "Connectors_JST:JST_XH_B02B-XH-A_02x2.50mm_Straight" H 9950 3510 50  0001 C CNN
F 3 "" H 9950 3510 50  0001 C CNN
	1    9950 3600
	1    0    0    -1  
$EndComp
$Comp
L Motor_DC M7
U 1 1 59685867
P 10300 3600
F 0 "M7" H 10400 3700 50  0000 L CNN
F 1 "Motor_7" H 10300 3300 50  0000 R TNN
F 2 "Connectors_JST:JST_XH_B02B-XH-A_02x2.50mm_Straight" H 10300 3510 50  0001 C CNN
F 3 "" H 10300 3510 50  0001 C CNN
	1    10300 3600
	1    0    0    -1  
$EndComp
$Comp
L Motor_DC M8
U 1 1 5968586D
P 10650 3600
F 0 "M8" H 10750 3700 50  0000 L CNN
F 1 "Motor_8" H 10650 3300 50  0000 R TNN
F 2 "Connectors_JST:JST_XH_B02B-XH-A_02x2.50mm_Straight" H 10650 3510 50  0001 C CNN
F 3 "" H 10650 3510 50  0001 C CNN
	1    10650 3600
	1    0    0    -1  
$EndComp
$Comp
L GND #PWR025
U 1 1 59685873
P 9500 4300
F 0 "#PWR025" H 9500 4050 50  0001 C CNN
F 1 "GND" H 9500 4150 50  0000 C CNN
F 2 "" H 9500 4300 50  0001 C CNN
F 3 "" H 9500 4300 50  0001 C CNN
	1    9500 4300
	1    0    0    -1  
$EndComp
Text Label 9600 2850 3    60   ~ 0
motor5_out
Text Label 9950 2850 3    60   ~ 0
motor6_out
Text Label 10300 2850 3    60   ~ 0
motor7_out
Text Label 10650 2850 3    60   ~ 0
motor8_out
$Comp
L Motor_DC M9
U 1 1 59685B8A
P 9600 5450
F 0 "M9" H 9700 5550 50  0000 L CNN
F 1 "Motor_9" H 9600 5100 50  0000 R BNN
F 2 "Connectors_JST:JST_XH_B02B-XH-A_02x2.50mm_Straight" H 9600 5360 50  0001 C CNN
F 3 "" H 9600 5360 50  0001 C CNN
	1    9600 5450
	1    0    0    -1  
$EndComp
$Comp
L Motor_DC M10
U 1 1 59685B90
P 9950 5450
F 0 "M10" H 10050 5550 50  0000 L CNN
F 1 "Motor_10" H 9950 5150 50  0000 R TNN
F 2 "Connectors_JST:JST_XH_B02B-XH-A_02x2.50mm_Straight" H 9950 5360 50  0001 C CNN
F 3 "" H 9950 5360 50  0001 C CNN
	1    9950 5450
	1    0    0    -1  
$EndComp
$Comp
L Motor_DC M11
U 1 1 59685B96
P 10300 5450
F 0 "M11" H 10400 5550 50  0000 L CNN
F 1 "Motor_11" H 10300 5150 50  0000 R TNN
F 2 "Connectors_JST:JST_XH_B02B-XH-A_02x2.50mm_Straight" H 10300 5360 50  0001 C CNN
F 3 "" H 10300 5360 50  0001 C CNN
	1    10300 5450
	1    0    0    -1  
$EndComp
$Comp
L Motor_DC M12
U 1 1 59685B9C
P 10650 5450
F 0 "M12" H 10750 5550 50  0000 L CNN
F 1 "Motor_12" H 10650 5150 50  0000 R TNN
F 2 "Connectors_JST:JST_XH_B02B-XH-A_02x2.50mm_Straight" H 10650 5360 50  0001 C CNN
F 3 "" H 10650 5360 50  0001 C CNN
	1    10650 5450
	1    0    0    -1  
$EndComp
$Comp
L GND #PWR026
U 1 1 59685BA2
P 9500 6150
F 0 "#PWR026" H 9500 5900 50  0001 C CNN
F 1 "GND" H 9500 6000 50  0000 C CNN
F 2 "" H 9500 6150 50  0001 C CNN
F 3 "" H 9500 6150 50  0001 C CNN
	1    9500 6150
	1    0    0    -1  
$EndComp
Text Label 9600 4700 3    60   ~ 0
motor9_out
Text Label 9950 4700 3    60   ~ 0
motor10_out
Text Label 10300 4700 3    60   ~ 0
motor11_out
Text Label 10650 4700 3    60   ~ 0
motor12_out
Text Label 8650 3400 2    60   ~ 0
motor7_out
Text Label 8800 3850 2    60   ~ 0
motor8_out
Text Label 8650 3250 2    60   ~ 0
motor7_logic
Text Label 8900 4000 2    60   ~ 0
motor8_logic
$Comp
L SN754410 U4
U 1 1 5968C936
P 7200 5550
F 0 "U4" H 6700 6300 60  0000 C CNN
F 1 "SN754410" H 7200 5900 60  0000 C CNN
F 2 "Housings_DIP:DIP-16_W7.62mm_LongPads" H 7000 5450 60  0001 C CNN
F 3 "" H 7000 5450 60  0001 C CNN
	1    7200 5550
	1    0    0    -1  
$EndComp
$Comp
L +5V #PWR027
U 1 1 5968C93C
P 8050 4900
F 0 "#PWR027" H 8050 4750 50  0001 C CNN
F 1 "+5V" H 8050 5040 50  0000 C CNN
F 2 "" H 8050 4900 50  0001 C CNN
F 3 "" H 8050 4900 50  0001 C CNN
	1    8050 4900
	1    0    0    -1  
$EndComp
$Comp
L +12V #PWR028
U 1 1 5968C942
P 6450 6150
F 0 "#PWR028" H 6450 6000 50  0001 C CNN
F 1 "+12V" H 6450 6290 50  0000 C CNN
F 2 "" H 6450 6150 50  0001 C CNN
F 3 "" H 6450 6150 50  0001 C CNN
	1    6450 6150
	-1   0    0    1   
$EndComp
$Comp
L GND #PWR029
U 1 1 5968C948
P 6250 6300
F 0 "#PWR029" H 6250 6050 50  0001 C CNN
F 1 "GND" H 6250 6150 50  0000 C CNN
F 2 "" H 6250 6300 50  0001 C CNN
F 3 "" H 6250 6300 50  0001 C CNN
	1    6250 6300
	1    0    0    -1  
$EndComp
$Comp
L GND #PWR030
U 1 1 5968C94E
P 8250 6400
F 0 "#PWR030" H 8250 6150 50  0001 C CNN
F 1 "GND" H 8250 6250 50  0000 C CNN
F 2 "" H 8250 6400 50  0001 C CNN
F 3 "" H 8250 6400 50  0001 C CNN
	1    8250 6400
	1    0    0    -1  
$EndComp
$Comp
L +5V #PWR031
U 1 1 5968C954
P 8050 6150
F 0 "#PWR031" H 8050 6000 50  0001 C CNN
F 1 "+5V" H 8050 6290 50  0000 C CNN
F 2 "" H 8050 6150 50  0001 C CNN
F 3 "" H 8050 6150 50  0001 C CNN
	1    8050 6150
	-1   0    0    1   
$EndComp
$Comp
L +5V #PWR032
U 1 1 5968C95A
P 6450 4900
F 0 "#PWR032" H 6450 4750 50  0001 C CNN
F 1 "+5V" H 6450 5040 50  0000 C CNN
F 2 "" H 6450 4900 50  0001 C CNN
F 3 "" H 6450 4900 50  0001 C CNN
	1    6450 4900
	1    0    0    -1  
$EndComp
Text Label 5850 5300 0    60   ~ 0
motor9_out
Text Label 5650 5750 0    60   ~ 0
motor10_out
Text Label 5800 5150 0    60   ~ 0
motor9_logic
Text Label 5550 5900 0    60   ~ 0
motor10_logic
Text Label 8650 5300 2    60   ~ 0
motor11_out
Text Label 8850 5750 2    60   ~ 0
motor12_out
Text Label 8650 5150 2    60   ~ 0
motor11_logic
Text Label 8950 5900 2    60   ~ 0
motor12_logic
$Comp
L Motor_DC M13
U 1 1 59BC9010
P 9600 7350
F 0 "M13" H 9700 7450 50  0000 L CNN
F 1 "Motor_13" H 9600 7000 50  0000 R BNN
F 2 "Connectors_JST:JST_XH_B02B-XH-A_02x2.50mm_Straight" H 9600 7260 50  0001 C CNN
F 3 "" H 9600 7260 50  0001 C CNN
	1    9600 7350
	1    0    0    -1  
$EndComp
$Comp
L Motor_DC M14
U 1 1 59BC9016
P 9950 7350
F 0 "M14" H 10050 7450 50  0000 L CNN
F 1 "Motor_14" H 9950 7050 50  0000 R TNN
F 2 "Connectors_JST:JST_XH_B02B-XH-A_02x2.50mm_Straight" H 9950 7260 50  0001 C CNN
F 3 "" H 9950 7260 50  0001 C CNN
	1    9950 7350
	1    0    0    -1  
$EndComp
$Comp
L Motor_DC M15
U 1 1 59BC901C
P 10300 7350
F 0 "M15" H 10400 7450 50  0000 L CNN
F 1 "Motor_15" H 10300 7050 50  0000 R TNN
F 2 "Connectors_JST:JST_XH_B02B-XH-A_02x2.50mm_Straight" H 10300 7260 50  0001 C CNN
F 3 "" H 10300 7260 50  0001 C CNN
	1    10300 7350
	1    0    0    -1  
$EndComp
$Comp
L Motor_DC M16
U 1 1 59BC9022
P 10650 7350
F 0 "M16" H 10750 7450 50  0000 L CNN
F 1 "Motor_16" H 10650 7050 50  0000 R TNN
F 2 "Connectors_JST:JST_XH_B02B-XH-A_02x2.50mm_Straight" H 10650 7260 50  0001 C CNN
F 3 "" H 10650 7260 50  0001 C CNN
	1    10650 7350
	1    0    0    -1  
$EndComp
$Comp
L GND #PWR033
U 1 1 59BC9028
P 9500 8050
F 0 "#PWR033" H 9500 7800 50  0001 C CNN
F 1 "GND" H 9500 7900 50  0000 C CNN
F 2 "" H 9500 8050 50  0001 C CNN
F 3 "" H 9500 8050 50  0001 C CNN
	1    9500 8050
	1    0    0    -1  
$EndComp
Text Label 9600 6600 3    60   ~ 0
motor13_out
Text Label 9950 6600 3    60   ~ 0
motor14_out
Text Label 10300 6600 3    60   ~ 0
motor15_out
Text Label 10650 6600 3    60   ~ 0
motor16_out
$Comp
L SN754410 U5
U 1 1 59BCF170
P 7250 7600
F 0 "U5" H 6750 8350 60  0000 C CNN
F 1 "SN754410" H 7250 7950 60  0000 C CNN
F 2 "Housings_DIP:DIP-16_W7.62mm_LongPads" H 7050 7500 60  0001 C CNN
F 3 "" H 7050 7500 60  0001 C CNN
	1    7250 7600
	1    0    0    -1  
$EndComp
$Comp
L +5V #PWR034
U 1 1 59BCF176
P 8100 6950
F 0 "#PWR034" H 8100 6800 50  0001 C CNN
F 1 "+5V" H 8100 7090 50  0000 C CNN
F 2 "" H 8100 6950 50  0001 C CNN
F 3 "" H 8100 6950 50  0001 C CNN
	1    8100 6950
	1    0    0    -1  
$EndComp
$Comp
L +12V #PWR035
U 1 1 59BCF17C
P 6500 8200
F 0 "#PWR035" H 6500 8050 50  0001 C CNN
F 1 "+12V" H 6500 8340 50  0000 C CNN
F 2 "" H 6500 8200 50  0001 C CNN
F 3 "" H 6500 8200 50  0001 C CNN
	1    6500 8200
	-1   0    0    1   
$EndComp
$Comp
L GND #PWR036
U 1 1 59BCF182
P 6300 8350
F 0 "#PWR036" H 6300 8100 50  0001 C CNN
F 1 "GND" H 6300 8200 50  0000 C CNN
F 2 "" H 6300 8350 50  0001 C CNN
F 3 "" H 6300 8350 50  0001 C CNN
	1    6300 8350
	1    0    0    -1  
$EndComp
$Comp
L GND #PWR037
U 1 1 59BCF188
P 8300 8450
F 0 "#PWR037" H 8300 8200 50  0001 C CNN
F 1 "GND" H 8300 8300 50  0000 C CNN
F 2 "" H 8300 8450 50  0001 C CNN
F 3 "" H 8300 8450 50  0001 C CNN
	1    8300 8450
	1    0    0    -1  
$EndComp
$Comp
L +5V #PWR038
U 1 1 59BCF18E
P 8100 8200
F 0 "#PWR038" H 8100 8050 50  0001 C CNN
F 1 "+5V" H 8100 8340 50  0000 C CNN
F 2 "" H 8100 8200 50  0001 C CNN
F 3 "" H 8100 8200 50  0001 C CNN
	1    8100 8200
	-1   0    0    1   
$EndComp
$Comp
L +5V #PWR039
U 1 1 59BCF194
P 6500 6950
F 0 "#PWR039" H 6500 6800 50  0001 C CNN
F 1 "+5V" H 6500 7090 50  0000 C CNN
F 2 "" H 6500 6950 50  0001 C CNN
F 3 "" H 6500 6950 50  0001 C CNN
	1    6500 6950
	1    0    0    -1  
$EndComp
Text Label 5900 7350 0    60   ~ 0
motor13_out
Text Label 5700 7800 0    60   ~ 0
motor14_out
Text Label 5850 7200 0    60   ~ 0
motor13_logic
Text Label 5600 7950 0    60   ~ 0
motor14_logic
Text Label 8700 7350 2    60   ~ 0
motor15_out
Text Label 8900 7800 2    60   ~ 0
motor16_out
Text Label 8700 7200 2    60   ~ 0
motor15_logic
Text Label 9000 7950 2    60   ~ 0
motor16_logic
Text Label 2200 800  0    60   ~ 0
motorSel_0
Text Label 2200 900  0    60   ~ 0
motorSel_1
Text Label 2200 1100 0    60   ~ 0
motorSel_3
Text Label 2200 1000 0    60   ~ 0
motorSel_2
Text Label 2200 1300 0    60   ~ 0
motorStrobe
Text Label 2200 1400 0    60   ~ 0
motorInhibit
Text Label 5350 2300 2    60   ~ 0
motor16_logic
Text Label 5350 2100 2    60   ~ 0
motor14_logic
Text Label 5350 2200 2    60   ~ 0
motor15_logic
Text Label 5350 2000 2    60   ~ 0
motor13_logic
Text Label 5350 1900 2    60   ~ 0
motor12_logic
Text Label 5350 1700 2    60   ~ 0
motor10_logic
Text Label 5350 1800 2    60   ~ 0
motor11_logic
Text Label 5350 1600 2    60   ~ 0
motor9_logic
Text Label 5350 1500 2    60   ~ 0
motor8_logic
Text Label 5350 1300 2    60   ~ 0
motor6_logic
Text Label 5350 1400 2    60   ~ 0
motor7_logic
Text Label 5350 1200 2    60   ~ 0
motor5_logic
Text Label 5350 1100 2    60   ~ 0
motor4_logic
Text Label 5350 900  2    60   ~ 0
motor2_logic
Text Label 5350 1000 2    60   ~ 0
motor3_logic
Text Label 5350 800  2    60   ~ 0
motor1_logic
$Comp
L CD4514BM U1
U 1 1 59BD201C
P 3750 1600
F 0 "U1" H 3750 2500 50  0000 C CNN
F 1 "CD4514BM" H 3700 750 50  0000 C CNN
F 2 "Housings_SOIC:SOIC-24W_7.5x15.4mm_Pitch1.27mm" H 3750 1600 50  0001 C CNN
F 3 "" H 3750 1600 50  0000 C CNN
	1    3750 1600
	1    0    0    -1  
$EndComp
Text Notes 3200 650  0    60   ~ 0
4:16 Motor Select Decoder
Text Label 5350 4950 2    60   ~ 0
i2c_scl
Text Label 5350 4850 2    60   ~ 0
i2c_sda
$Comp
L CONN_01X02 P3
U 1 1 59BD4D3F
P 2100 8900
F 0 "P3" H 2100 9050 50  0000 C CNN
F 1 "servo_ctrl_sda_scl" H 1800 8750 50  0000 C CNN
F 2 "Connectors_JST:JST_XH_B02B-XH-A_02x2.50mm_Straight" H 2100 8900 50  0001 C CNN
F 3 "" H 2100 8900 50  0000 C CNN
	1    2100 8900
	1    0    0    -1  
$EndComp
NoConn ~ 4450 5050
NoConn ~ 4450 5550
NoConn ~ 4450 5650
NoConn ~ 2650 5450
NoConn ~ 4450 5250
NoConn ~ 2650 5550
NoConn ~ 4450 6150
NoConn ~ 2650 5050
NoConn ~ 4450 5350
NoConn ~ 2650 5950
NoConn ~ 2650 5850
NoConn ~ 2650 5750
NoConn ~ 2650 5250
$Comp
L +5V #PWR040
U 1 1 59BD886E
P 3250 2050
F 0 "#PWR040" H 3250 1900 50  0001 C CNN
F 1 "+5V" H 3250 2190 50  0000 C CNN
F 2 "" H 3250 2050 50  0001 C CNN
F 3 "" H 3250 2050 50  0001 C CNN
	1    3250 2050
	1    0    0    -1  
$EndComp
$Comp
L GND #PWR041
U 1 1 59BD9D35
P 3250 2400
F 0 "#PWR041" H 3250 2150 50  0001 C CNN
F 1 "GND" H 3250 2250 50  0000 C CNN
F 2 "" H 3250 2400 50  0001 C CNN
F 3 "" H 3250 2400 50  0001 C CNN
	1    3250 2400
	1    0    0    -1  
$EndComp
$Comp
L CONN_01X02 P2
U 1 1 59BD87E7
P 2100 9950
F 0 "P2" H 2100 10100 50  0000 C CNN
F 1 "servo_ctrl_V+_gnd" H 1800 9800 50  0000 C CNN
F 2 "Connectors_JST:JST_XH_B02B-XH-A_02x2.50mm_Straight" H 2100 9950 50  0001 C CNN
F 3 "" H 2100 9950 50  0000 C CNN
	1    2100 9950
	1    0    0    -1  
$EndComp
Text Label 1250 10000 0    60   ~ 0
servo_ctrl_gnd
Text Label 1250 9900 0    60   ~ 0
servo_ctrl_V+
$Comp
L CONN_01X02 P1
U 1 1 59BD91C8
P 2100 9350
F 0 "P1" H 2100 9500 50  0000 C CNN
F 1 "servo_ctrl_Vcc_gnd" H 1800 9200 50  0000 C CNN
F 2 "Connectors_JST:JST_XH_B02B-XH-A_02x2.50mm_Straight" H 2100 9350 50  0001 C CNN
F 3 "" H 2100 9350 50  0000 C CNN
	1    2100 9350
	1    0    0    -1  
$EndComp
Text Label 1250 9400 0    60   ~ 0
servo_ctrl_gnd
Text Label 1250 9300 0    60   ~ 0
servo_ctrl_Vcc
$Comp
L GND #PWR042
U 1 1 59BDAE60
P 1250 10000
F 0 "#PWR042" H 1250 9750 50  0001 C CNN
F 1 "GND" H 1250 9850 50  0000 C CNN
F 2 "" H 1250 10000 50  0001 C CNN
F 3 "" H 1250 10000 50  0001 C CNN
	1    1250 10000
	1    0    0    -1  
$EndComp
$Comp
L GND #PWR043
U 1 1 59BDAE82
P 1250 9400
F 0 "#PWR043" H 1250 9150 50  0001 C CNN
F 1 "GND" H 1250 9250 50  0000 C CNN
F 2 "" H 1250 9400 50  0001 C CNN
F 3 "" H 1250 9400 50  0001 C CNN
	1    1250 9400
	1    0    0    -1  
$EndComp
$Comp
L +5V #PWR044
U 1 1 59BDB174
P 1250 9300
F 0 "#PWR044" H 1250 9150 50  0001 C CNN
F 1 "+5V" H 1250 9440 50  0000 C CNN
F 2 "" H 1250 9300 50  0001 C CNN
F 3 "" H 1250 9300 50  0001 C CNN
	1    1250 9300
	1    0    0    -1  
$EndComp
$Comp
L +5V #PWR045
U 1 1 59BDB196
P 1250 9900
F 0 "#PWR045" H 1250 9750 50  0001 C CNN
F 1 "+5V" H 1250 10040 50  0000 C CNN
F 2 "" H 1250 9900 50  0001 C CNN
F 3 "" H 1250 9900 50  0001 C CNN
	1    1250 9900
	1    0    0    -1  
$EndComp
$Comp
L CONN_01X02 P4
U 1 1 59D716EA
P 3300 8900
F 0 "P4" H 3300 9050 50  0000 C CNN
F 1 "i2c_port_0" H 3000 8750 50  0000 C CNN
F 2 "Connectors_JST:JST_XH_B02B-XH-A_02x2.50mm_Straight" H 3300 8900 50  0001 C CNN
F 3 "" H 3300 8900 50  0000 C CNN
	1    3300 8900
	1    0    0    -1  
$EndComp
$Comp
L CONN_01X02 P5
U 1 1 59D71753
P 4400 8900
F 0 "P5" H 4400 9050 50  0000 C CNN
F 1 "i2c_port_1" H 4100 8750 50  0000 C CNN
F 2 "Connectors_JST:JST_XH_B02B-XH-A_02x2.50mm_Straight" H 4400 8900 50  0001 C CNN
F 3 "" H 4400 8900 50  0000 C CNN
	1    4400 8900
	1    0    0    -1  
$EndComp
$Comp
L CONN_01X02 P7
U 1 1 59D7308D
P 5500 8900
F 0 "P7" H 5500 9050 50  0000 C CNN
F 1 "load_cell_data_sck" H 5200 8750 50  0000 C CNN
F 2 "Connectors_JST:JST_XH_B02B-XH-A_02x2.50mm_Straight" H 5500 8900 50  0001 C CNN
F 3 "" H 5500 8900 50  0000 C CNN
	1    5500 8900
	1    0    0    -1  
$EndComp
$Comp
L CONN_01X02 P10
U 1 1 59D73097
P 5500 9400
F 0 "P10" H 5500 9550 50  0000 C CNN
F 1 "load_cell_pwr" H 5200 9250 50  0000 C CNN
F 2 "Connectors_JST:JST_XH_B02B-XH-A_02x2.50mm_Straight" H 5500 9400 50  0001 C CNN
F 3 "" H 5500 9400 50  0000 C CNN
	1    5500 9400
	1    0    0    -1  
$EndComp
$Comp
L CONN_01X02 P8
U 1 1 59D76531
P 3300 9400
F 0 "P8" H 3300 9550 50  0000 C CNN
F 1 "i2c_port_0_pwr" H 3000 9250 50  0000 C CNN
F 2 "Connectors_JST:JST_XH_B02B-XH-A_02x2.50mm_Straight" H 3300 9400 50  0001 C CNN
F 3 "" H 3300 9400 50  0000 C CNN
	1    3300 9400
	1    0    0    -1  
$EndComp
$Comp
L CONN_01X02 P9
U 1 1 59D7653B
P 4400 9400
F 0 "P9" H 4400 9550 50  0000 C CNN
F 1 "i2c_port_1_pwr" H 4100 9250 50  0000 C CNN
F 2 "Connectors_JST:JST_XH_B02B-XH-A_02x2.50mm_Straight" H 4400 9400 50  0001 C CNN
F 3 "" H 4400 9400 50  0000 C CNN
	1    4400 9400
	1    0    0    -1  
$EndComp
Text Label 1800 8850 2    60   ~ 0
i2c_sda
Text Label 1800 8950 2    60   ~ 0
i2c_scl
Text Label 5200 8850 2    60   ~ 0
load_cell_data
Text Label 5200 8950 2    60   ~ 0
load_cell_sck
Text Label 2950 8850 2    60   ~ 0
i2c_sda
Text Label 2950 8950 2    60   ~ 0
i2c_scl
Text Label 4050 8850 2    60   ~ 0
i2c_sda
Text Label 4050 8950 2    60   ~ 0
i2c_scl
Text Label 1850 5350 0    60   ~ 0
load_cell_data
Text Label 1850 6050 0    60   ~ 0
load_cell_sck
Text Label 4800 6250 0    60   ~ 0
LED_ctrl
Text Label 1550 8250 2    60   ~ 0
LED_ctrl
$Comp
L CONN_01X03 P6
U 1 1 59D82233
P 2100 8250
F 0 "P6" H 2100 8450 50  0000 C CNN
F 1 "CONN_01X03" V 2200 8250 50  0000 C CNN
F 2 "Pin_Headers:Pin_Header_Straight_1x03_Pitch2.54mm" H 2100 8250 50  0001 C CNN
F 3 "" H 2100 8250 50  0000 C CNN
	1    2100 8250
	1    0    0    -1  
$EndComp
$Comp
L GND #PWR046
U 1 1 59D8278F
P 1900 8350
F 0 "#PWR046" H 1900 8100 50  0001 C CNN
F 1 "GND" H 1900 8200 50  0000 C CNN
F 2 "" H 1900 8350 50  0001 C CNN
F 3 "" H 1900 8350 50  0001 C CNN
	1    1900 8350
	-1   0    0    -1  
$EndComp
$Comp
L +5V #PWR047
U 1 1 59D83045
P 1900 8150
F 0 "#PWR047" H 1900 8000 50  0001 C CNN
F 1 "+5V" H 1900 8290 50  0000 C CNN
F 2 "" H 1900 8150 50  0001 C CNN
F 3 "" H 1900 8150 50  0001 C CNN
	1    1900 8150
	-1   0    0    -1  
$EndComp
$Comp
L GND #PWR048
U 1 1 59D837D4
P 2450 9450
F 0 "#PWR048" H 2450 9200 50  0001 C CNN
F 1 "GND" H 2450 9300 50  0000 C CNN
F 2 "" H 2450 9450 50  0001 C CNN
F 3 "" H 2450 9450 50  0001 C CNN
	1    2450 9450
	1    0    0    -1  
$EndComp
$Comp
L GND #PWR049
U 1 1 59D83848
P 3550 9450
F 0 "#PWR049" H 3550 9200 50  0001 C CNN
F 1 "GND" H 3550 9300 50  0000 C CNN
F 2 "" H 3550 9450 50  0001 C CNN
F 3 "" H 3550 9450 50  0001 C CNN
	1    3550 9450
	1    0    0    -1  
$EndComp
$Comp
L GND #PWR050
U 1 1 59D838BC
P 4650 9450
F 0 "#PWR050" H 4650 9200 50  0001 C CNN
F 1 "GND" H 4650 9300 50  0000 C CNN
F 2 "" H 4650 9450 50  0001 C CNN
F 3 "" H 4650 9450 50  0001 C CNN
	1    4650 9450
	1    0    0    -1  
$EndComp
$Comp
L +5V #PWR051
U 1 1 59D83930
P 2450 9350
F 0 "#PWR051" H 2450 9200 50  0001 C CNN
F 1 "+5V" H 2450 9490 50  0000 C CNN
F 2 "" H 2450 9350 50  0001 C CNN
F 3 "" H 2450 9350 50  0001 C CNN
	1    2450 9350
	1    0    0    -1  
$EndComp
$Comp
L +5V #PWR052
U 1 1 59D839A4
P 3550 9350
F 0 "#PWR052" H 3550 9200 50  0001 C CNN
F 1 "+5V" H 3550 9490 50  0000 C CNN
F 2 "" H 3550 9350 50  0001 C CNN
F 3 "" H 3550 9350 50  0001 C CNN
	1    3550 9350
	1    0    0    -1  
$EndComp
$Comp
L +5V #PWR053
U 1 1 59D83A18
P 4650 9350
F 0 "#PWR053" H 4650 9200 50  0001 C CNN
F 1 "+5V" H 4650 9490 50  0000 C CNN
F 2 "" H 4650 9350 50  0001 C CNN
F 3 "" H 4650 9350 50  0001 C CNN
	1    4650 9350
	1    0    0    -1  
$EndComp
Wire Wire Line
	10650 2400 10650 2100
Wire Wire Line
	10300 2400 10300 2100
Wire Wire Line
	9950 2400 9950 2100
Wire Wire Line
	9600 2400 9600 2100
Wire Wire Line
	6450 4150 6450 4250
Wire Wire Line
	6450 2250 6450 2350
Wire Wire Line
	8050 3100 8050 3000
Wire Wire Line
	8050 1200 8050 1100
Wire Wire Line
	6450 1650 6250 1650
Wire Wire Line
	6250 1650 6250 2500
Wire Wire Line
	6450 1800 6250 1800
Connection ~ 6250 1800
Wire Wire Line
	8050 1650 8250 1650
Wire Wire Line
	8250 1650 8250 2450
Wire Wire Line
	8050 1800 8250 1800
Connection ~ 8250 1800
Wire Wire Line
	6450 3550 6250 3550
Wire Wire Line
	6250 3550 6250 4400
Wire Wire Line
	6450 3700 6250 3700
Connection ~ 6250 3700
Wire Wire Line
	8050 3700 8250 3700
Wire Wire Line
	8250 3550 8250 4500
Wire Wire Line
	8050 2250 8050 2350
Wire Wire Line
	8050 4150 8050 4250
Wire Wire Line
	9600 1050 9600 1600
Wire Wire Line
	9950 1050 9950 1600
Wire Wire Line
	10300 1050 10300 1600
Wire Wire Line
	10650 1050 10650 1600
Wire Wire Line
	8050 1500 8650 1500
Wire Wire Line
	8050 1950 8800 1950
Wire Wire Line
	8050 1350 8650 1350
Wire Wire Line
	8050 2100 8900 2100
Wire Wire Line
	5850 1350 6450 1350
Wire Wire Line
	6450 1500 5900 1500
Wire Wire Line
	6450 1950 5600 1950
Wire Wire Line
	6450 2100 5600 2100
Wire Wire Line
	6450 1100 6450 1200
Wire Wire Line
	6450 3000 6450 3100
Wire Wire Line
	8050 3550 8250 3550
Connection ~ 8250 3700
Wire Wire Line
	5800 3250 6450 3250
Wire Wire Line
	6450 3400 5850 3400
Wire Wire Line
	6450 3850 5700 3850
Wire Wire Line
	6450 4000 5600 4000
Wire Wire Line
	1000 2950 1000 3350
Wire Wire Line
	1000 3350 950  3350
Wire Wire Line
	950  3550 1000 3550
Wire Wire Line
	1000 3550 1000 3700
Wire Wire Line
	1250 3700 1250 3550
Wire Wire Line
	1250 3550 1300 3550
Wire Wire Line
	1250 3350 1300 3350
Wire Wire Line
	1250 2950 1250 3350
Wire Wire Line
	1300 1200 1300 1400
Wire Wire Line
	1250 1400 1650 1400
Wire Wire Line
	1250 1600 1650 1600
Wire Wire Line
	1300 1500 1300 1750
Wire Wire Line
	3150 7050 3150 7150
Wire Wire Line
	3350 4350 3350 4450
Connection ~ 1300 1400
Wire Wire Line
	1650 1400 1650 1100
Wire Wire Line
	1650 1600 1650 1950
Connection ~ 1300 1600
Wire Wire Line
	1750 6150 2650 6150
Wire Wire Line
	1750 5150 2650 5150
Wire Wire Line
	5350 5750 4450 5750
Wire Wire Line
	5350 5950 4450 5950
Wire Wire Line
	1750 5650 2650 5650
Wire Wire Line
	5350 5850 4450 5850
Wire Wire Line
	9500 2500 9500 2400
Wire Wire Line
	1250 3100 1800 3100
Wire Wire Line
	1800 3100 1800 2950
Connection ~ 1250 3100
Wire Wire Line
	1300 1500 1250 1500
Wire Notes Line
	2050 500  2050 3950
Wire Wire Line
	9500 2400 10650 2400
Connection ~ 10300 2400
Connection ~ 9950 2400
Connection ~ 9600 2400
Wire Wire Line
	10650 4200 10650 3900
Wire Wire Line
	10300 4200 10300 3900
Wire Wire Line
	9950 4200 9950 3900
Wire Wire Line
	9600 4200 9600 3900
Wire Wire Line
	9600 2850 9600 3400
Wire Wire Line
	9950 2850 9950 3400
Wire Wire Line
	10300 2850 10300 3400
Wire Wire Line
	10650 2850 10650 3400
Wire Wire Line
	9500 4300 9500 4200
Wire Wire Line
	9500 4200 10650 4200
Connection ~ 10300 4200
Connection ~ 9950 4200
Connection ~ 9600 4200
Wire Wire Line
	10650 6050 10650 5750
Wire Wire Line
	10300 6050 10300 5750
Wire Wire Line
	9950 6050 9950 5750
Wire Wire Line
	9600 6050 9600 5750
Wire Wire Line
	9600 4700 9600 5250
Wire Wire Line
	9950 4700 9950 5250
Wire Wire Line
	10300 4700 10300 5250
Wire Wire Line
	10650 4700 10650 5250
Wire Wire Line
	9500 6150 9500 6050
Wire Wire Line
	9500 6050 10650 6050
Connection ~ 10300 6050
Connection ~ 9950 6050
Connection ~ 9600 6050
Wire Wire Line
	8050 3400 8650 3400
Wire Wire Line
	8050 3850 8800 3850
Wire Wire Line
	8050 3250 8650 3250
Wire Wire Line
	8050 4000 8900 4000
Wire Wire Line
	6450 6050 6450 6150
Wire Wire Line
	8050 5000 8050 4900
Wire Wire Line
	6450 5450 6250 5450
Wire Wire Line
	6250 5450 6250 6300
Wire Wire Line
	6450 5600 6250 5600
Connection ~ 6250 5600
Wire Wire Line
	8050 5600 8250 5600
Wire Wire Line
	8250 5450 8250 6400
Wire Wire Line
	8050 6050 8050 6150
Wire Wire Line
	6450 4900 6450 5000
Wire Wire Line
	8050 5450 8250 5450
Connection ~ 8250 5600
Wire Wire Line
	5800 5150 6450 5150
Wire Wire Line
	6450 5300 5850 5300
Wire Wire Line
	6450 5750 5650 5750
Wire Wire Line
	6450 5900 5550 5900
Wire Wire Line
	8050 5300 8650 5300
Wire Wire Line
	8050 5750 8850 5750
Wire Wire Line
	8050 5150 8650 5150
Wire Wire Line
	8050 5900 8950 5900
Wire Wire Line
	10650 7950 10650 7650
Wire Wire Line
	10300 7950 10300 7650
Wire Wire Line
	9950 7950 9950 7650
Wire Wire Line
	9600 7950 9600 7650
Wire Wire Line
	9600 6600 9600 7150
Wire Wire Line
	9950 6600 9950 7150
Wire Wire Line
	10300 6600 10300 7150
Wire Wire Line
	10650 6600 10650 7150
Wire Wire Line
	9500 8050 9500 7950
Wire Wire Line
	9500 7950 10650 7950
Connection ~ 10300 7950
Connection ~ 9950 7950
Connection ~ 9600 7950
Wire Notes Line
	2100 3950 450  3950
Wire Wire Line
	6500 8100 6500 8200
Wire Wire Line
	8100 7050 8100 6950
Wire Wire Line
	6500 7500 6300 7500
Wire Wire Line
	6300 7500 6300 8350
Wire Wire Line
	6500 7650 6300 7650
Connection ~ 6300 7650
Wire Wire Line
	8100 7650 8300 7650
Wire Wire Line
	8300 7500 8300 8450
Wire Wire Line
	8100 8100 8100 8200
Wire Wire Line
	6500 6950 6500 7050
Wire Wire Line
	8100 7500 8300 7500
Connection ~ 8300 7650
Wire Wire Line
	5850 7200 6500 7200
Wire Wire Line
	6500 7350 5900 7350
Wire Wire Line
	6500 7800 5700 7800
Wire Wire Line
	8100 7350 8700 7350
Wire Wire Line
	8100 7800 8900 7800
Wire Wire Line
	8100 7200 8700 7200
Wire Wire Line
	8100 7950 9000 7950
Wire Wire Line
	2200 800  3100 800 
Wire Wire Line
	2200 900  3100 900 
Wire Wire Line
	2200 1100 3100 1100
Wire Wire Line
	2200 1000 3100 1000
Wire Wire Line
	2200 1300 3100 1300
Wire Wire Line
	2200 1400 3100 1400
Wire Wire Line
	4450 2300 5350 2300
Wire Wire Line
	4450 2100 5350 2100
Wire Wire Line
	4450 2200 5350 2200
Wire Wire Line
	4450 2000 5350 2000
Wire Wire Line
	4450 1900 5350 1900
Wire Wire Line
	4450 1700 5350 1700
Wire Wire Line
	4450 1800 5350 1800
Wire Wire Line
	4450 1600 5350 1600
Wire Wire Line
	4450 1500 5350 1500
Wire Wire Line
	4450 1300 5350 1300
Wire Wire Line
	4450 1400 5350 1400
Wire Wire Line
	4450 1200 5350 1200
Wire Wire Line
	4450 1100 5350 1100
Wire Wire Line
	4450 900  5350 900 
Wire Wire Line
	4450 1000 5350 1000
Wire Wire Line
	4450 800  5350 800 
Wire Wire Line
	4450 4950 5350 4950
Wire Wire Line
	4450 4850 5350 4850
Wire Wire Line
	1900 8950 1250 8950
Wire Wire Line
	1900 8850 1250 8850
Wire Wire Line
	6500 7950 5600 7950
Wire Wire Line
	3250 2050 3250 2150
Wire Wire Line
	3250 2150 3400 2150
Wire Wire Line
	3400 2250 3250 2250
Wire Wire Line
	3250 2250 3250 2400
Wire Wire Line
	1900 10000 1250 10000
Wire Wire Line
	1900 9900 1250 9900
Wire Wire Line
	1900 9400 1250 9400
Wire Wire Line
	1900 9300 1250 9300
Wire Wire Line
	3100 8950 2450 8950
Wire Wire Line
	3100 8850 2450 8850
Wire Wire Line
	4200 8950 3550 8950
Wire Wire Line
	4200 8850 3550 8850
Wire Wire Line
	5300 8950 4650 8950
Wire Wire Line
	5300 8850 4650 8850
Wire Wire Line
	5300 9450 4650 9450
Wire Wire Line
	5300 9350 4650 9350
Wire Wire Line
	3100 9450 2450 9450
Wire Wire Line
	3100 9350 2450 9350
Wire Wire Line
	4200 9450 3550 9450
Wire Wire Line
	4200 9350 3550 9350
Wire Wire Line
	2650 6050 1850 6050
Wire Wire Line
	2650 5350 1850 5350
Wire Wire Line
	4450 6250 5250 6250
Wire Wire Line
	1900 8250 1100 8250
Wire Wire Line
	3350 4400 3450 4400
Wire Wire Line
	3450 4400 3450 4450
Connection ~ 3350 4400
Wire Wire Line
	3150 7100 3850 7100
Wire Wire Line
	3250 7100 3250 7050
Connection ~ 3150 7100
Wire Wire Line
	3350 7100 3350 7050
Connection ~ 3250 7100
Wire Wire Line
	3450 7100 3450 7050
Connection ~ 3350 7100
Wire Wire Line
	3550 7100 3550 7050
Wire Wire Line
	3650 7100 3650 7050
Connection ~ 3550 7100
Connection ~ 3450 7100
Wire Wire Line
	3750 7100 3750 7050
Connection ~ 3650 7100
Wire Wire Line
	3850 7100 3850 7050
Connection ~ 3750 7100
$EndSCHEMATC
